%YAML 1.1
%TAG !u! tag:unity3d.com,2011:
--- !u!114 &11400000
MonoBehaviour:
  m_ObjectHideFlags: 0
  m_CorrespondingSourceObject: {fileID: 0}
  m_PrefabInstance: {fileID: 0}
  m_PrefabAsset: {fileID: 0}
  m_GameObject: {fileID: 0}
  m_Enabled: 1
  m_EditorHideFlags: 0
  m_Script: {fileID: 11500000, guid: b1e59cc3b0c7467e8a9284f412777f1e, type: 3}
  m_Name: DumbSetting
  m_EditorClassIdentifier: 
  PlayerName: Fred
  TankName: Dumb
  TurretColor: {r: 1, g: 1, b: 1, a: 0}
  HullColor: {r: 1, g: 1, b: 1, a: 0}
  TracksColor: {r: 1, g: 1, b: 1, a: 0}
  Brains:
  - {fileID: 11400000, guid: 5b8c8e95878328146b174cb4ce57295b, type: 2}
